Analysis on the Fertility Rate of South Korea
…
# A tsibble: 33 x 3 [1Y]
    Year jp_trend kr_trend
   <dbl>    <dbl>    <dbl>
 1  1991    10.4      15.8
 2  1992    10.2      15.9
 3  1993     9.97     15.9
 4  1994     9.82     15.7
 5  1995     9.70     15.4
 6  1996     9.59     14.9
 7  1997     9.50     14.4
 8  1998     9.40     13.8
 9  1999     9.31     13.2
10  2000     9.21     12.5
# ℹ 23 more rows
…
